<?xml version="1.0" standalone="no"?>
<!DOCTYPE svg PUBLIC "-//W3C//DTD SVG 20010904//EN"
 "http://www.w3.org/TR/2001/REC-SVG-20010904/DTD/svg10.dtd">
<svg version="1.0" xmlns="http://www.w3.org/2000/svg"
 width="262.000000pt" height="174.000000pt" viewBox="0 0 262.000000 174.000000"
 preserveAspectRatio="xMidYMid meet">

<g transform="translate(0.000000,174.000000) scale(0.100000,-0.100000)"
fill="#000000" stroke="none">
<path d="M282 1719 c-26 -13 -55 -39 -70 -62 l-27 -41 -3 -647 -3 -648 -82 -3
-82 -3 1 -86 c2 -93 13 -125 61 -173 58 -59 -4 -56 1208 -56 1212 0 1150 -3
1208 56 48 48 59 80 61 173 l1 86 -82 3 c-71 2 -83 5 -83 20 0 10 -22 40 -49
66 l-50 49 -31 -26 c-17 -15 -49 -32 -70 -38 -34 -10 -40 -16 -40 -40 l0 -29
-312 -2 -313 -3 -3 -22 c-7 -47 -32 -53 -237 -53 -205 0 -230 6 -237 53 l-3
22 -312 3 -313 2 0 590 0 590 860 0 859 0 3 -112 3 -113 115 -42 c63 -23 118
-42 123 -42 4 -1 7 88 7 197 -1 250 -12 287 -102 333 -36 18 -75 19 -1000 19
l-963 0 -43 -21z"/>
<path d="M877 1234 c-4 -4 -7 -21 -7 -38 0 -27 -6 -34 -42 -51 -58 -28 -88
-75 -88 -136 0 -65 37 -106 138 -154 83 -40 92 -48 92 -83 0 -17 -9 -27 -37
-38 -37 -16 -57 -14 -162 17 -10 3 -19 -11 -28 -41 -16 -54 -9 -62 67 -80 47
-11 49 -14 52 -48 3 -36 4 -37 43 -37 39 0 40 1 43 38 3 32 9 40 41 57 21 10
52 35 69 55 27 30 32 43 32 89 0 80 -26 111 -135 166 -83 42 -90 47 -90 75 0
26 5 31 36 39 25 6 51 4 89 -7 60 -18 64 -16 75 41 7 40 1 47 -62 63 -37 10
-42 15 -45 43 -3 28 -7 31 -38 34 -20 2 -39 0 -43 -4z"/>
<path d="M1267 1173 c-12 -11 -8 -88 5 -101 9 -9 86 -12 284 -12 305 0 297 -2
292 72 l-3 43 -286 3 c-157 1 -288 -1 -292 -5z"/>
<path d="M1971 1126 c-10 -11 6 -66 79 -282 50 -147 93 -270 96 -273 2 -3 35
25 72 62 37 37 72 67 77 67 5 0 54 -44 107 -97 l98 -97 40 39 c22 21 40 45 40
52 0 7 -43 56 -96 109 l-97 96 73 73 c40 40 67 75 62 79 -6 3 -122 44 -259 91
-137 46 -256 87 -265 90 -8 3 -20 -1 -27 -9z"/>
<path d="M1264 936 c-3 -8 -4 -31 -2 -52 l3 -39 290 0 290 0 0 50 0 50 -288 3
c-240 2 -288 0 -293 -12z"/>
<path d="M1264 706 c-3 -8 -4 -31 -2 -52 l3 -39 290 0 290 0 0 50 0 50 -288 3
c-240 2 -288 0 -293 -12z"/>
</g>
</svg>
